%YAML 1.1
%TAG !u! tag:unity3d.com,2011:
--- !u!1045 &1
EditorBuildSettings:
  m_ObjectHideFlags: 0
  serializedVersion: 2
  m_Scenes:
  - enabled: 1
    path: Assets/Scenes/Menu.unity
    guid: 5f57f34705831e0488b49dc55dd5d8a5
  - enabled: 1
    path: Assets/Scenes/Reglas.unity
    guid: 4004cb323d5abde49a1fca6e6335d069
  - enabled: 1
    path: Assets/Scenes/Niveles.unity
    guid: 817c934face94b14fa427c08b885b8d0
  - enabled: 1
    path: Assets/Scenes/Juego.unity
    guid: 7969e5d55ce7342428fd22db4e726733
  - enabled: 1
    path: Assets/Scenes/Juego 1.unity
    guid: 9bf19aac3c8460c4b83c44f66fe7c592
  - enabled: 1
    path: Assets/Scenes/Juego 2.unity
    guid: 9d1c1e86a6dc2b842aee7b686c3684af
  - enabled: 1
    path: Assets/Scenes/Juego 3.unity
    guid: c500a101bd02af7428a5be22fa355eb0
  - enabled: 1
    path: Assets/Scenes/Juego 4.unity
    guid: bce7e69f56b6e3041940ebfca331e524
  - enabled: 1
    path: Assets/Scenes/Game Over.unity
    guid: 5a875030daa5d764aa9e9d66b9bab185
  - enabled: 1
    path: Assets/Scenes/Win.unity
    guid: 86e48826e91fcda4eb23604ef0508b86
  m_configObjects: {}
